^C:\USERS\KAROL\DOCUMENTS\VISUAL STUDIO 2015\PROJECTS\THREADPOOLSORT\THREADPOOLSORT\MAIN.CPP
C:\USERS\KAROL\DOCUMENTS\VISUAL STUDIO 2015\PROJECTS\THREADPOOLSORT\THREADPOOLSORT\DEBUG\VC140.PDB
C:\USERS\KAROL\DOCUMENTS\VISUAL STUDIO 2015\PROJECTS\THREADPOOLSORT\THREADPOOLSORT\DEBUG\VC140.IDB
C:\USERS\KAROL\DOCUMENTS\VISUAL STUDIO 2015\PROJECTS\THREADPOOLSORT\THREADPOOLSORT\DEBUG\MAIN.OBJ
